result/sim_log.txt
# KERNEL: Reset Done at 10
# KERNEL: -----------------
# KERNEL: [GEN]: OPTR 1, iteration 1 at 10
# KERNEL: [DRV]: Written Din 11100001 at 50
# KERNEL: [MON]: We: 1 Re: 0 din: 11100001 dout: 0 empty: 0 full: 0 cnt: 1 at 70
# KERNEL: [SCO]: We: 1 Re: 0 din: 11100001 dout: 0 empty: 0 full: 0 cnt: 1 at 70
# KERNEL: ------------------------
# KERNEL: [SCO]: The data stored in Queue 11100001 at 70
# KERNEL: ------------------------
# KERNEL: [GEN]: OPTR 1, iteration 2 at 70
# KERNEL: [DRV]: Written Din 1100010 at 110
# KERNEL: [MON]: We: 1 Re: 0 din: 1100010 dout: 0 empty: 0 full: 0 cnt: 2 at 130
# KERNEL: [SCO]: We: 1 Re: 0 din: 1100010 dout: 0 empty: 0 full: 0 cnt: 2 at 130
# KERNEL: ------------------------
# KERNEL: [SCO]: The data stored in Queue 1100010 at 130
# KERNEL: ------------------------
# KERNEL: [GEN]: OPTR 1, iteration 3 at 130
# KERNEL: [DRV]: Written Din 1111001 at 170
# KERNEL: [MON]: We: 1 Re: 0 din: 1111001 dout: 0 empty: 0 full: 0 cnt: 3 at 190
# KERNEL: [SCO]: We: 1 Re: 0 din: 1111001 dout: 0 empty: 0 full: 0 cnt: 3 at 190
# KERNEL: ------------------------
# KERNEL: [SCO]: The data stored in Queue 1111001 at 190
# KERNEL: ------------------------
# KERNEL: [GEN]: OPTR 1, iteration 4 at 190
# KERNEL: [DRV]: Written Din 1001 at 230
# KERNEL: [MON]: We: 1 Re: 0 din: 1001 dout: 0 empty: 0 full: 0 cnt: 4 at 250
# KERNEL: [SCO]: We: 1 Re: 0 din: 1001 dout: 0 empty: 0 full: 0 cnt: 4 at 250
# KERNEL: ------------------------
# KERNEL: [SCO]: The data stored in Queue 1001 at 250
# KERNEL: ------------------------
# KERNEL: [GEN]: OPTR 1, iteration 5 at 250
# KERNEL: [DRV]: Written Din 1101111 at 290
# KERNEL: [MON]: We: 1 Re: 0 din: 1101111 dout: 0 empty: 0 full: 0 cnt: 5 at 310
# KERNEL: [SCO]: We: 1 Re: 0 din: 1101111 dout: 0 empty: 0 full: 0 cnt: 5 at 310
# KERNEL: ------------------------
# KERNEL: [SCO]: The data stored in Queue 1101111 at 310
# KERNEL: ------------------------
# KERNEL: [GEN]: OPTR 0, iteration 6 at 310
# KERNEL: [DRV]: Data Read at time 350
# KERNEL: [MON]: We: 0 Re: 1 din: 1101111 dout: 11100001 empty: 0 full: 0 cnt: 4 at 370
# KERNEL: [SCO]: We: 0 Re: 1 din: 1101111 dout: 11100001 empty: 0 full: 0 cnt: 4 at 370
# KERNEL: ------------------------
# KERNEL: [SCO]: The data popped from Queue 11100001 at 370
# KERNEL: ------------------------
# KERNEL: [SCO]: The Output matched at 370
# KERNEL: ------------------------
# KERNEL: [GEN]: OPTR 1, iteration 7 at 370
# KERNEL: [DRV]: Written Din 1010001 at 410
# KERNEL: [MON]: We: 1 Re: 0 din: 1010001 dout: 11100001 empty: 0 full: 0 cnt: 5 at 430
# KERNEL: [SCO]: We: 1 Re: 0 din: 1010001 dout: 11100001 empty: 0 full: 0 cnt: 5 at 430
# KERNEL: ------------------------
# KERNEL: [SCO]: The data stored in Queue 1010001 at 430
# KERNEL: ------------------------
# KERNEL: [GEN]: OPTR 1, iteration 8 at 430
# KERNEL: [DRV]: Written Din 11111101 at 470
# KERNEL: [MON]: We: 1 Re: 0 din: 11111101 dout: 11100001 empty: 0 full: 0 cnt: 6 at 490
# KERNEL: [SCO]: We: 1 Re: 0 din: 11111101 dout: 11100001 empty: 0 full: 0 cnt: 6 at 490
# KERNEL: ------------------------
# KERNEL: [SCO]: The data stored in Queue 11111101 at 490
# KERNEL: ------------------------
# KERNEL: [GEN]: OPTR 1, iteration 9 at 490
# KERNEL: [DRV]: Written Din 1001010 at 530
# KERNEL: [MON]: We: 1 Re: 0 din: 1001010 dout: 11100001 empty: 0 full: 0 cnt: 7 at 550
# KERNEL: [SCO]: We: 1 Re: 0 din: 1001010 dout: 11100001 empty: 0 full: 0 cnt: 7 at 550
# KERNEL: ------------------------
# KERNEL: [SCO]: The data stored in Queue 1001010 at 550
# KERNEL: ------------------------
# KERNEL: [GEN]: OPTR 1, iteration 10 at 550
# KERNEL: [DRV]: Written Din 1100110 at 590
# KERNEL: [MON]: We: 1 Re: 0 din: 1100110 dout: 11100001 empty: 0 full: 0 cnt: 8 at 610
# KERNEL: [SCO]: We: 1 Re: 0 din: 1100110 dout: 11100001 empty: 0 full: 0 cnt: 8 at 610
# KERNEL: ------------------------
# KERNEL: [SCO]: The data stored in Queue 1100110 at 610
# KERNEL: ------------------------
# KERNEL: [GEN]: OPTR 1, iteration 11 at 610
# KERNEL: [DRV]: Written Din 1101001 at 650
# KERNEL: [MON]: We: 1 Re: 0 din: 1101001 dout: 11100001 empty: 0 full: 0 cnt: 9 at 670
# KERNEL: [SCO]: We: 1 Re: 0 din: 1101001 dout: 11100001 empty: 0 full: 0 cnt: 9 at 670
# KERNEL: ------------------------
# KERNEL: [SCO]: The data stored in Queue 1101001 at 670
# KERNEL: ------------------------
# KERNEL: [GEN]: OPTR 1, iteration 12 at 670
# KERNEL: [DRV]: Written Din 100110 at 710
# KERNEL: [MON]: We: 1 Re: 0 din: 100110 dout: 11100001 empty: 0 full: 0 cnt: 10 at 730
# KERNEL: [SCO]: We: 1 Re: 0 din: 100110 dout: 11100001 empty: 0 full: 0 cnt: 10 at 730
# KERNEL: ------------------------
# KERNEL: [SCO]: The data stored in Queue 100110 at 730
# KERNEL: ------------------------
# KERNEL: [GEN]: OPTR 1, iteration 13 at 730
# KERNEL: [DRV]: Written Din 11011010 at 770
# KERNEL: [MON]: We: 1 Re: 0 din: 11011010 dout: 11100001 empty: 0 full: 0 cnt: 11 at 790
# KERNEL: [SCO]: We: 1 Re: 0 din: 11011010 dout: 11100001 empty: 0 full: 0 cnt: 11 at 790
# KERNEL: ------------------------
# KERNEL: [SCO]: The data stored in Queue 11011010 at 790
# KERNEL: ------------------------
# KERNEL: [GEN]: OPTR 1, iteration 14 at 790
# KERNEL: [DRV]: Written Din 101100 at 830
# KERNEL: [MON]: We: 1 Re: 0 din: 101100 dout: 11100001 empty: 0 full: 0 cnt: 12 at 850
# KERNEL: [SCO]: We: 1 Re: 0 din: 101100 dout: 11100001 empty: 0 full: 0 cnt: 12 at 850
# KERNEL: ------------------------
# KERNEL: [SCO]: The data stored in Queue 101100 at 850
# KERNEL: ------------------------
# KERNEL: [GEN]: OPTR 1, iteration 15 at 850
# KERNEL: [DRV]: Written Din 10101100 at 890
# KERNEL: [MON]: We: 1 Re: 0 din: 10101100 dout: 11100001 empty: 0 full: 0 cnt: 13 at 910
# KERNEL: [SCO]: We: 1 Re: 0 din: 10101100 dout: 11100001 empty: 0 full: 0 cnt: 13 at 910
# KERNEL: ------------------------
# KERNEL: [SCO]: The data stored in Queue 10101100 at 910
# KERNEL: ------------------------
# KERNEL: [GEN]: OPTR 1, iteration 16 at 910
# KERNEL: [DRV]: Written Din 1001110 at 950
# KERNEL: [MON]: We: 1 Re: 0 din: 1001110 dout: 11100001 empty: 0 full: 0 cnt: 14 at 970
# KERNEL: [SCO]: We: 1 Re: 0 din: 1001110 dout: 11100001 empty: 0 full: 0 cnt: 14 at 970
# KERNEL: ------------------------
# KERNEL: [SCO]: The data stored in Queue 1001110 at 970
# KERNEL: ------------------------
# KERNEL: [GEN]: OPTR 1, iteration 17 at 970
# KERNEL: [DRV]: Written Din 100101 at 1010
# KERNEL: [MON]: We: 1 Re: 0 din: 100101 dout: 11100001 empty: 0 full: 0 cnt: 15 at 1030
# KERNEL: [SCO]: We: 1 Re: 0 din: 100101 dout: 11100001 empty: 0 full: 0 cnt: 15 at 1030
# KERNEL: ------------------------
# KERNEL: [SCO]: The data stored in Queue 100101 at 1030
# KERNEL: ------------------------
# KERNEL: [GEN]: OPTR 1, iteration 18 at 1030
# KERNEL: [DRV]: Written Din 1100010 at 1070
# KERNEL: [MON]: We: 1 Re: 0 din: 1100010 dout: 11100001 empty: 0 full: 1 cnt: 16 at 1090
# KERNEL: [SCO]: We: 1 Re: 0 din: 1100010 dout: 11100001 empty: 0 full: 1 cnt: 16 at 1090
# KERNEL: ------------------------
# KERNEL: [SCO]: FIFO is full
# KERNEL: ------------------------
# KERNEL: [GEN]: OPTR 1, iteration 19 at 1090
# KERNEL: [DRV]: Written Din 1 at 1130
# KERNEL: [MON]: We: 1 Re: 0 din: 1 dout: 11100001 empty: 0 full: 1 cnt: 16 at 1150
# KERNEL: [SCO]: We: 1 Re: 0 din: 1 dout: 11100001 empty: 0 full: 1 cnt: 16 at 1150
# KERNEL: ------------------------
# KERNEL: [SCO]: FIFO is full
# KERNEL: ------------------------
# KERNEL: [GEN]: OPTR 1, iteration 20 at 1150
# KERNEL: [DRV]: Written Din 1010101 at 1190
# KERNEL: [MON]: We: 1 Re: 0 din: 1010101 dout: 11100001 empty: 0 full: 1 cnt: 16 at 1210
# KERNEL: [SCO]: We: 1 Re: 0 din: 1010101 dout: 11100001 empty: 0 full: 1 cnt: 16 at 1210
# KERNEL: ------------------------
# KERNEL: [SCO]: FIFO is full
# KERNEL: ------------------------
# KERNEL: ----------------
# KERNEL: [DUT]: count: 16
# KERNEL: Error Count 0
# KERNEL: ----------------
# RUNTIME: Info: RUNTIME_0068 testbench.sv (267): $finish called.
